Homework2_Sampling
…
3b. Build an initial data frame for simulations with the sample sizes 5 through 20. Have 100 simulations per sample size.

set.seed(2018)
vole_sim <- data.frame(sample_size = rep(5:20, time = 100))

3c. Use this data frame to get simulated upper quartiles for each sample size.

set.seed(2018)
vole_sim_quartiles <- vole_sim %>%
  rowwise()%>%
  mutate(upp_qt = quantile(sample(vole_vaso, size = sample_size, replace = TRUE), probs = 0.75))%>%
  ungroup()
vole_sim_quartiles

## # A tibble: 1,600 x 2
##    sample_size upp_qt
##          <int>  <dbl>
##  1           5   88  
##  2           6   76.2
##  3           7   51  
##  4           8   83.5
##  5           9   94  
##  6          10   79  
##  7          11   94  
##  8          12   76  
##  9          13   94  
## 10          14   87.5
## # ... with 1,590 more rows
…
